Home
…
Warning: package 'tibble' was built under R version 3.5.2

Warning: package 'purrr' was built under R version 3.5.2

Warning: package 'stringr' was built under R version 3.5.2

── Conflicts ───────────────────────────────────────── tidyverse_conflicts() ──
✖ dplyr::filter() masks stats::filter()
✖ dplyr::lag()    masks stats::lag()

preliminary analsyis for grant

# A tibble: 282 x 2
   V1        V2   
   <fct>     <fct>
 1 exm945633 SYTL2
 2 exm945634 SYTL2
 3 exm945659 SYTL2
 4 exm945661 SYTL2
 5 exm945663 SYTL2
 6 exm945668 SYTL2
 7 exm945670 SYTL2
 8 exm945673 SYTL2
 9 exm945675 SYTL2
10 exm945682 SYTL2
# … with 272 more rows

# A tibble: 14,336 x 285
     FID IID   exm145169 exm2232392 exm2275541 exm145179 exm145181
   <int> <fct>     <int>      <int>      <int>     <int>     <int>
 1     0 ACT-…         0          0          0         0         1
 2     0 ACT-…         0          0          0         0         0
 3     0 ACT-…         0          0          0         0         0
 4     0 ACT-…         0          0          0         0         0
 5     0 ACT-…         0          0          0         0         0
 6     0 ACT-…         0          0          0         0         0
 7     0 ACT-…         0          0          0         0         0
 8     0 ACT-…         0          0          0         0         0
 9     0 ACT-…         0          0          0         0         0
10     0 ACT-…         0          0          0         0         0
# … with 14,326 more rows, and 278 more variables: exm145192 <int>,
#   exm145213 <int>, exm145214 <int>, exm145219 <int>, exm145223 <int>,
#   exm2237302 <int>, exm276762 <int>, exm2273875 <int>, exm276774 <int>,
#   exm276775 <int>, exm276776 <int>, exm276779 <int>, exm276789 <int>,
#   exm276791 <int>, exm276795 <int>, exm276799 <int>, exm276803 <int>,
#   exm276804 <int>, exm.rs6704644 <int>, exm276817 <int>,
#   exm276818 <int>, exm276838 <int>, exm276841 <int>, exm276843 <int>,
#   exm276844 <int>, exm276845 <int>, exm276846 <int>, exm276851 <int>,
#   exm276855 <int>, exm276857 <int>, exm276859 <int>, exm276869 <int>,
…
#   exm638602 <int>, exm638606 <int>, exm638608 <int>, exm638617 <int>,
#   exm638620 <int>, exm638635 <int>, exm2158566 <int>, exm2266552 <int>,
#   exm638644 <int>, exm638645 <int>, exm638648 <int>, exm638652 <int>,
#   exm643565 <int>, exm643587 <int>, exm643590 <int>, exm643598 <int>,
#   exm643600 <int>, exm643602 <int>, exm2244631 <int>, exm2244632 <int>,
#   exm643627 <int>, exm643628 <int>, exm643640 <int>, exm643642 <int>,
#   exm643644 <int>, exm643650 <int>, exm643697 <int>, exm643763 <int>,
#   exm643829 <int>, exm2264245 <int>, exm643857 <int>, exm643858 <int>,
#   exm643860 <int>, exm643862 <int>, exm643873 <int>, exm643883 <int>,
#   exm2244687 <int>, exm691554 <int>, exm691558 <int>, exm691562 <int>,
#   exm691569 <int>, exm691571 <int>, exm691577 <int>, exm2274304 <int>,
#   exm691598 <int>, exm2170506 <int>, exm691599 <int>, exm691609 <int>,
#   exm691617 <int>, exm691623 <int>, exm691630 <int>, …

# A tibble: 14,336 x 8
     FID IID             AD   SEX   AGE      PC1      PC2      PC3
   <int> <fct>        <int> <int> <int>    <dbl>    <dbl>    <dbl>
 1     0 ACT-ACT90001     1     0    88 -0.00821  0.00114 -0.00728
 2     0 ACT-ACT90008     1     1    86 -0.00064  0.0054   0.0206 
 3     0 ACT-ACT90011     0     1    78 -0.00797 -0.00613  0.0167 
 4     0 ACT-ACT90013     0     0    75 -0.0102   0.00531  0.0162 
 5     0 ACT-ACT90017     0     0    85  0.0946  -0.0265   0.0237 
 6     0 ACT-ACT90020     0     1    89 -0.00383  0.00477  0.00214
 7     0 ACT-ACT90023     0     1    90 -0.00741  0.00001  0.00782
 8     0 ACT-ACT90027     0     0    74 -0.00935 -0.0151   0.0223 
 9     0 ACT-ACT90032     0     1    85  0.0263   0.0347  -0.00295
10     0 ACT-ACT90033     0     1    80 -0.00367 -0.00449 -0.0214 
# … with 14,326 more rows
…
